<?xml version="1.0" encoding="UTF-8" standalone="no"?>
<svg width="265.377mm" height="106.892mm"
 viewBox="0 0 1003 403"
 xmlns="http://www.w3.org/2000/svg" xmlns:xlink="http://www.w3.org/1999/xlink"  version="1.2" baseProfile="tiny">
<title>Qt SVG Document</title>
<desc>Generated with Qt</desc>
<defs>
</defs>
<g fill="none" stroke="black" stroke-width="1" fill-rule="evenodd" stroke-linecap="square" stroke-linejoin="bevel" >

<g fill="none" stroke="#000000" stroke-opacity="1" stroke-width="1" stroke-linecap="square" stroke-linejoin="bevel" transform="matrix(1,0,0,1,0,0)"
font-family="Cantarell" font-size="14.6667" font-weight="400" font-style="normal" 
>
</g>

<g fill="none" stroke="#000000" stroke-opacity="1" stroke-width="1" stroke-linecap="square" stroke-linejoin="bevel" transform="matrix(1,0,0,1,0,0)"
font-family="Cantarell" font-size="14.6667" font-weight="400" font-style="normal" 
>
</g>

<g fill="none" stroke="#000000" stroke-opacity="1" stroke-width="1" stroke-linecap="square" stroke-linejoin="bevel" transform="matrix(0.995714,0,0,0.995714,3194.21,1266.85)"
font-family="Cantarell" font-size="14.6667" font-weight="400" font-style="normal" 
>
</g>

<g fill="#ffffff" fill-opacity="1" stroke="none" transform="matrix(0.995714,0,0,0.995714,3194.21,1266.85)"
font-family="Cantarell" font-size="14.6667" font-weight="400" font-style="normal" 
>
<rect x="-3207.96" y="-1272.3" width="1005.48" height="405.739"/>
</g>

<g fill="none" stroke="#000000" stroke-opacity="1" stroke-width="1" stroke-linecap="square" stroke-linejoin="bevel" transform="matrix(0.995714,0,0,0.995714,3194.21,1266.85)"
font-family="Cantarell" font-size="14.6667" font-weight="400" font-style="normal" 
>
</g>

<g fill="none" stroke="#000000" stroke-opacity="1" stroke-width="1" stroke-linecap="square" stroke-linejoin="bevel" transform="matrix(0.995714,0,0,0.995714,239.101,89.3112)"
font-family="Cantarell" font-size="14.6667" font-weight="400" font-style="normal" 
>
</g>

<g fill="#d6d6e6" fill-opacity="1" stroke="#8d92f5" stroke-opacity="1" stroke-width="1" stroke-linecap="square" stroke-linejoin="bevel" transform="matrix(0.995714,0,0,0.995714,239.101,89.3112)"
font-family="Cantarell" font-size="14.6667" font-weight="400" font-style="normal" 
>
<rect vector-effect="non-scaling-stroke" x="0" y="0" width="37" height="32"/>
</g>

<g fill="#d6d6e6" fill-opacity="1" stroke="#212130" stroke-opacity="1" stroke-width="1" stroke-linecap="square" stroke-linejoin="bevel" transform="matrix(0.995714,0,0,0.995714,239.101,89.3112)"
font-family="Roboto Condensed" font-size="12" font-weight="700" font-style="normal" 
>
</g>

<g fill="#d6d6e6" fill-opacity="1" stroke="#212130" stroke-opacity="1" stroke-width="1" stroke-linecap="square" stroke-linejoin="bevel" transform="matrix(0.995714,0,0,0.995714,239.101,89.3112)"
font-family="Roboto Condensed" font-size="12" font-weight="700" font-style="normal" 
>
<text fill="#212130" fill-opacity="1" stroke="none" xml:space="preserve" x="5" y="13" font-family="Roboto Condensed" font-size="12" font-weight="700" font-style="normal" 
 >Padre</text>
</g>

<g fill="#d6d6e6" fill-opacity="1" stroke="#8d92f5" stroke-opacity="1" stroke-width="1" stroke-linecap="square" stroke-linejoin="bevel" transform="matrix(0.995714,0,0,0.995714,239.101,89.3112)"
font-family="Roboto Condensed" font-size="12" font-weight="400" font-style="normal" 
>
<polyline fill="none" vector-effect="non-scaling-stroke" points="0,16 37,16 " />
</g>

<g fill="#d6d6e6" fill-opacity="1" stroke="#8d92f5" stroke-opacity="1" stroke-width="1" stroke-linecap="square" stroke-linejoin="bevel" transform="matrix(0.995714,0,0,0.995714,239.101,89.3112)"
font-family="Roboto Condensed" font-size="12" font-weight="400" font-style="normal" 
>
<polyline fill="none" vector-effect="non-scaling-stroke" points="0,24 37,24 " />
</g>

<g fill="#d6d6e6" fill-opacity="1" stroke="#212130" stroke-opacity="1" stroke-width="1" stroke-linecap="square" stroke-linejoin="bevel" transform="matrix(0.995714,0,0,0.995714,239.101,89.3112)"
font-family="Roboto Condensed" font-size="12" font-weight="400" font-style="normal" 
>
</g>

<g fill="#d6d6e6" fill-opacity="1" stroke="#212130" stroke-opacity="1" stroke-width="1" stroke-linecap="square" stroke-linejoin="bevel" transform="matrix(0.995714,0,0,0.995714,239.101,89.3112)"
font-family="Roboto Condensed" font-size="12" font-weight="400" font-style="normal" 
>
</g>

<g fill="#d6d6e6" fill-opacity="1" stroke="#212130" stroke-opacity="1" stroke-width="1" stroke-linecap="square" stroke-linejoin="bevel" transform="matrix(0.995714,0,0,0.995714,239.101,89.3112)"
font-family="Roboto Condensed" font-size="12" font-weight="400" font-style="normal" 
>
</g>

<g fill="#d6d6e6" fill-opacity="1" stroke="#212130" stroke-opacity="1" stroke-width="1" stroke-linecap="square" stroke-linejoin="bevel" transform="matrix(1,0,0,1,0,0)"
font-family="Roboto Condensed" font-size="12" font-weight="400" font-style="normal" 
>
</g>

<g fill="none" stroke="#000000" stroke-opacity="1" stroke-width="1" stroke-linecap="square" stroke-linejoin="bevel" transform="matrix(0.995714,0,0,0.995714,239.101,89.3112)"
font-family="Cantarell" font-size="14.6667" font-weight="400" font-style="normal" 
>
</g>

<g fill="none" stroke="#000000" stroke-opacity="1" stroke-width="1" stroke-linecap="square" stroke-linejoin="bevel" transform="matrix(0.995714,0,0,0.995714,394.952,89.3112)"
font-family="Cantarell" font-size="14.6667" font-weight="400" font-style="normal" 
>
</g>

<g fill="#d6d6e6" fill-opacity="1" stroke="#8d92f5" stroke-opacity="1" stroke-width="1" stroke-linecap="square" stroke-linejoin="bevel" transform="matrix(0.995714,0,0,0.995714,394.952,89.3112)"
font-family="Cantarell" font-size="14.6667" font-weight="400" font-style="normal" 
>
<rect vector-effect="non-scaling-stroke" x="0" y="0" width="29" height="32"/>
</g>

<g fill="#d6d6e6" fill-opacity="1" stroke="#212130" stroke-opacity="1" stroke-width="1" stroke-linecap="square" stroke-linejoin="bevel" transform="matrix(0.995714,0,0,0.995714,394.952,89.3112)"
font-family="Roboto Condensed" font-size="12" font-weight="700" font-style="normal" 
>
</g>

<g fill="#d6d6e6" fill-opacity="1" stroke="#212130" stroke-opacity="1" stroke-width="1" stroke-linecap="square" stroke-linejoin="bevel" transform="matrix(0.995714,0,0,0.995714,394.952,89.3112)"
font-family="Roboto Condensed" font-size="12" font-weight="700" font-style="normal" 
>
<text fill="#212130" fill-opacity="1" stroke="none" xml:space="preserve" x="5.34375" y="13" font-family="Roboto Condensed" font-size="12" font-weight="700" font-style="normal" 
 >Hijo</text>
</g>

<g fill="#d6d6e6" fill-opacity="1" stroke="#8d92f5" stroke-opacity="1" stroke-width="1" stroke-linecap="square" stroke-linejoin="bevel" transform="matrix(0.995714,0,0,0.995714,394.952,89.3112)"
font-family="Roboto Condensed" font-size="12" font-weight="400" font-style="normal" 
>
<polyline fill="none" vector-effect="non-scaling-stroke" points="0,16 29,16 " />
</g>

<g fill="#d6d6e6" fill-opacity="1" stroke="#8d92f5" stroke-opacity="1" stroke-width="1" stroke-linecap="square" stroke-linejoin="bevel" transform="matrix(0.995714,0,0,0.995714,394.952,89.3112)"
font-family="Roboto Condensed" font-size="12" font-weight="400" font-style="normal" 
>
<polyline fill="none" vector-effect="non-scaling-stroke" points="0,24 29,24 " />
</g>

<g fill="#d6d6e6" fill-opacity="1" stroke="#212130" stroke-opacity="1" stroke-width="1" stroke-linecap="square" stroke-linejoin="bevel" transform="matrix(0.995714,0,0,0.995714,394.952,89.3112)"
font-family="Roboto Condensed" font-size="12" font-weight="400" font-style="normal" 
>
</g>

<g fill="#d6d6e6" fill-opacity="1" stroke="#212130" stroke-opacity="1" stroke-width="1" stroke-linecap="square" stroke-linejoin="bevel" transform="matrix(0.995714,0,0,0.995714,394.952,89.3112)"
font-family="Roboto Condensed" font-size="12" font-weight="400" font-style="normal" 
>
</g>

<g fill="#d6d6e6" fill-opacity="1" stroke="#212130" stroke-opacity="1" stroke-width="1" stroke-linecap="square" stroke-linejoin="bevel" transform="matrix(0.995714,0,0,0.995714,394.952,89.3112)"
font-family="Roboto Condensed" font-size="12" font-weight="400" font-style="normal" 
>
</g>

<g fill="#d6d6e6" fill-opacity="1" stroke="#212130" stroke-opacity="1" stroke-width="1" stroke-linecap="square" stroke-linejoin="bevel" transform="matrix(1,0,0,1,0,0)"
font-family="Roboto Condensed" font-size="12" font-weight="400" font-style="normal" 
>
</g>

<g fill="none" stroke="#000000" stroke-opacity="1" stroke-width="1" stroke-linecap="square" stroke-linejoin="bevel" transform="matrix(0.995714,0,0,0.995714,394.952,89.3112)"
font-family="Cantarell" font-size="14.6667" font-weight="400" font-style="normal" 
>
</g>

<g fill="none" stroke="#000000" stroke-opacity="1" stroke-width="1" stroke-linecap="square" stroke-linejoin="bevel" transform="matrix(0.995714,0,0,0.995714,239.101,159.747)"
font-family="Cantarell" font-size="14.6667" font-weight="400" font-style="normal" 
>
</g>

<g fill="#d6d6e6" fill-opacity="1" stroke="#8d92f5" stroke-opacity="1" stroke-width="1" stroke-linecap="square" stroke-linejoin="bevel" transform="matrix(0.995714,0,0,0.995714,239.101,159.747)"
font-family="Cantarell" font-size="14.6667" font-weight="400" font-style="normal" 
>
<rect vector-effect="non-scaling-stroke" x="0" y="0" width="41" height="32"/>
</g>

<g fill="#d6d6e6" fill-opacity="1" stroke="#212130" stroke-opacity="1" stroke-width="1" stroke-linecap="square" stroke-linejoin="bevel" transform="matrix(0.995714,0,0,0.995714,239.101,159.747)"
font-family="Roboto Condensed" font-size="12" font-weight="700" font-style="normal" 
>
</g>

<g fill="#d6d6e6" fill-opacity="1" stroke="#212130" stroke-opacity="1" stroke-width="1" stroke-linecap="square" stroke-linejoin="bevel" transform="matrix(0.995714,0,0,0.995714,239.101,159.747)"
font-family="Roboto Condensed" font-size="12" font-weight="700" font-style="normal" 
>
<text fill="#212130" fill-opacity="1" stroke="none" xml:space="preserve" x="5.09375" y="13" font-family="Roboto Condensed" font-size="12" font-weight="700" font-style="normal" 
 >Gestor</text>
</g>

<g fill="#d6d6e6" fill-opacity="1" stroke="#8d92f5" stroke-opacity="1" stroke-width="1" stroke-linecap="square" stroke-linejoin="bevel" transform="matrix(0.995714,0,0,0.995714,239.101,159.747)"
font-family="Roboto Condensed" font-size="12" font-weight="400" font-style="normal" 
>
<polyline fill="none" vector-effect="non-scaling-stroke" points="0,16 41,16 " />
</g>

<g fill="#d6d6e6" fill-opacity="1" stroke="#8d92f5" stroke-opacity="1" stroke-width="1" stroke-linecap="square" stroke-linejoin="bevel" transform="matrix(0.995714,0,0,0.995714,239.101,159.747)"
font-family="Roboto Condensed" font-size="12" font-weight="400" font-style="normal" 
>
<polyline fill="none" vector-effect="non-scaling-stroke" points="0,24 41,24 " />
</g>

<g fill="#d6d6e6" fill-opacity="1" stroke="#212130" stroke-opacity="1" stroke-width="1" stroke-linecap="square" stroke-linejoin="bevel" transform="matrix(0.995714,0,0,0.995714,239.101,159.747)"
font-family="Roboto Condensed" font-size="12" font-weight="400" font-style="normal" 
>
</g>

<g fill="#d6d6e6" fill-opacity="1" stroke="#212130" stroke-opacity="1" stroke-width="1" stroke-linecap="square" stroke-linejoin="bevel" transform="matrix(0.995714,0,0,0.995714,239.101,159.747)"
font-family="Roboto Condensed" font-size="12" font-weight="400" font-style="normal" 
>
</g>

<g fill="#d6d6e6" fill-opacity="1" stroke="#212130" stroke-opacity="1" stroke-width="1" stroke-linecap="square" stroke-linejoin="bevel" transform="matrix(0.995714,0,0,0.995714,239.101,159.747)"
font-family="Roboto Condensed" font-size="12" font-weight="400" font-style="normal" 
>
</g>

<g fill="#d6d6e6" fill-opacity="1" stroke="#212130" stroke-opacity="1" stroke-width="1" stroke-linecap="square" stroke-linejoin="bevel" transform="matrix(1,0,0,1,0,0)"
font-family="Roboto Condensed" font-size="12" font-weight="400" font-style="normal" 
>
</g>

<g fill="none" stroke="#000000" stroke-opacity="1" stroke-width="1" stroke-linecap="square" stroke-linejoin="bevel" transform="matrix(0.995714,0,0,0.995714,239.101,159.747)"
font-family="Cantarell" font-size="14.6667" font-weight="400" font-style="normal" 
>
</g>

<g fill="none" stroke="#000000" stroke-opacity="1" stroke-width="1" stroke-linecap="square" stroke-linejoin="bevel" transform="matrix(0.995714,0,0,0.995714,239.101,227.586)"
font-family="Cantarell" font-size="14.6667" font-weight="400" font-style="normal" 
>
</g>

<g fill="#d6d6e6" fill-opacity="1" stroke="#8d92f5" stroke-opacity="1" stroke-width="1" stroke-linecap="square" stroke-linejoin="bevel" transform="matrix(0.995714,0,0,0.995714,239.101,227.586)"
font-family="Cantarell" font-size="14.6667" font-weight="400" font-style="normal" 
>
<rect vector-effect="non-scaling-stroke" x="0" y="0" width="26" height="32"/>
</g>

<g fill="#d6d6e6" fill-opacity="1" stroke="#212130" stroke-opacity="1" stroke-width="1" stroke-linecap="square" stroke-linejoin="bevel" transform="matrix(0.995714,0,0,0.995714,239.101,227.586)"
font-family="Roboto Condensed" font-size="12" font-weight="700" font-style="normal" 
>
</g>

<g fill="#d6d6e6" fill-opacity="1" stroke="#212130" stroke-opacity="1" stroke-width="1" stroke-linecap="square" stroke-linejoin="bevel" transform="matrix(0.995714,0,0,0.995714,239.101,227.586)"
font-family="Roboto Condensed" font-size="12" font-weight="700" font-style="normal" 
>
<text fill="#212130" fill-opacity="1" stroke="none" xml:space="preserve" x="5.34375" y="13" font-family="Roboto Condensed" font-size="12" font-weight="700" font-style="normal" 
 >Ser</text>
</g>

<g fill="#d6d6e6" fill-opacity="1" stroke="#8d92f5" stroke-opacity="1" stroke-width="1" stroke-linecap="square" stroke-linejoin="bevel" transform="matrix(0.995714,0,0,0.995714,239.101,227.586)"
font-family="Roboto Condensed" font-size="12" font-weight="400" font-style="normal" 
>
<polyline fill="none" vector-effect="non-scaling-stroke" points="0,16 26,16 " />
</g>

<g fill="#d6d6e6" fill-opacity="1" stroke="#8d92f5" stroke-opacity="1" stroke-width="1" stroke-linecap="square" stroke-linejoin="bevel" transform="matrix(0.995714,0,0,0.995714,239.101,227.586)"
font-family="Roboto Condensed" font-size="12" font-weight="400" font-style="normal" 
>
<polyline fill="none" vector-effect="non-scaling-stroke" points="0,24 26,24 " />
</g>

<g fill="#d6d6e6" fill-opacity="1" stroke="#212130" stroke-opacity="1" stroke-width="1" stroke-linecap="square" stroke-linejoin="bevel" transform="matrix(0.995714,0,0,0.995714,239.101,227.586)"
font-family="Roboto Condensed" font-size="12" font-weight="400" font-style="normal" 
>
</g>

<g fill="#d6d6e6" fill-opacity="1" stroke="#212130" stroke-opacity="1" stroke-width="1" stroke-linecap="square" stroke-linejoin="bevel" transform="matrix(0.995714,0,0,0.995714,239.101,227.586)"
font-family="Roboto Condensed" font-size="12" font-weight="400" font-style="normal" 
>
</g>

<g fill="#d6d6e6" fill-opacity="1" stroke="#212130" stroke-opacity="1" stroke-width="1" stroke-linecap="square" stroke-linejoin="bevel" transform="matrix(0.995714,0,0,0.995714,239.101,227.586)"
font-family="Roboto Condensed" font-size="12" font-weight="400" font-style="normal" 
>
</g>

<g fill="#d6d6e6" fill-opacity="1" stroke="#212130" stroke-opacity="1" stroke-width="1" stroke-linecap="square" stroke-linejoin="bevel" transform="matrix(1,0,0,1,0,0)"
font-family="Roboto Condensed" font-size="12" font-weight="400" font-style="normal" 
>
</g>

<g fill="none" stroke="#000000" stroke-opacity="1" stroke-width="1" stroke-linecap="square" stroke-linejoin="bevel" transform="matrix(0.995714,0,0,0.995714,239.101,227.586)"
font-family="Cantarell" font-size="14.6667" font-weight="400" font-style="normal" 
>
</g>

<g fill="none" stroke="#000000" stroke-opacity="1" stroke-width="1" stroke-linecap="square" stroke-linejoin="bevel" transform="matrix(0.995714,0,0,0.995714,239.101,297.156)"
font-family="Cantarell" font-size="14.6667" font-weight="400" font-style="normal" 
>
</g>

<g fill="#d6d6e6" fill-opacity="1" stroke="#8d92f5" stroke-opacity="1" stroke-width="1" stroke-linecap="square" stroke-linejoin="bevel" transform="matrix(0.995714,0,0,0.995714,239.101,297.156)"
font-family="Cantarell" font-size="14.6667" font-weight="400" font-style="normal" 
>
<rect vector-effect="non-scaling-stroke" x="0" y="0" width="40" height="32"/>
</g>

<g fill="#d6d6e6" fill-opacity="1" stroke="#212130" stroke-opacity="1" stroke-width="1" stroke-linecap="square" stroke-linejoin="bevel" transform="matrix(0.995714,0,0,0.995714,239.101,297.156)"
font-family="Roboto Condensed" font-size="12" font-weight="700" font-style="normal" 
>
</g>

<g fill="#d6d6e6" fill-opacity="1" stroke="#212130" stroke-opacity="1" stroke-width="1" stroke-linecap="square" stroke-linejoin="bevel" transform="matrix(0.995714,0,0,0.995714,239.101,297.156)"
font-family="Roboto Condensed" font-size="12" font-weight="700" font-style="normal" 
>
<text fill="#212130" fill-opacity="1" stroke="none" xml:space="preserve" x="5.21875" y="13" font-family="Roboto Condensed" font-size="12" font-weight="700" font-style="normal" 
 >Usado</text>
</g>

<g fill="#d6d6e6" fill-opacity="1" stroke="#8d92f5" stroke-opacity="1" stroke-width="1" stroke-linecap="square" stroke-linejoin="bevel" transform="matrix(0.995714,0,0,0.995714,239.101,297.156)"
font-family="Roboto Condensed" font-size="12" font-weight="400" font-style="normal" 
>
<polyline fill="none" vector-effect="non-scaling-stroke" points="0,16 40,16 " />
</g>

<g fill="#d6d6e6" fill-opacity="1" stroke="#8d92f5" stroke-opacity="1" stroke-width="1" stroke-linecap="square" stroke-linejoin="bevel" transform="matrix(0.995714,0,0,0.995714,239.101,297.156)"
font-family="Roboto Condensed" font-size="12" font-weight="400" font-style="normal" 
>
<polyline fill="none" vector-effect="non-scaling-stroke" points="0,24 40,24 " />
</g>

<g fill="#d6d6e6" fill-opacity="1" stroke="#212130" stroke-opacity="1" stroke-width="1" stroke-linecap="square" stroke-linejoin="bevel" transform="matrix(0.995714,0,0,0.995714,239.101,297.156)"
font-family="Roboto Condensed" font-size="12" font-weight="400" font-style="normal" 
>
</g>

<g fill="#d6d6e6" fill-opacity="1" stroke="#212130" stroke-opacity="1" stroke-width="1" stroke-linecap="square" stroke-linejoin="bevel" transform="matrix(0.995714,0,0,0.995714,239.101,297.156)"
font-family="Roboto Condensed" font-size="12" font-weight="400" font-style="normal" 
>
</g>

<g fill="#d6d6e6" fill-opacity="1" stroke="#212130" stroke-opacity="1" stroke-width="1" stroke-linecap="square" stroke-linejoin="bevel" transform="matrix(0.995714,0,0,0.995714,239.101,297.156)"
font-family="Roboto Condensed" font-size="12" font-weight="400" font-style="normal" 
>
</g>

<g fill="#d6d6e6" fill-opacity="1" stroke="#212130" stroke-opacity="1" stroke-width="1" stroke-linecap="square" stroke-linejoin="bevel" transform="matrix(1,0,0,1,0,0)"
font-family="Roboto Condensed" font-size="12" font-weight="400" font-style="normal" 
>
</g>

<g fill="none" stroke="#000000" stroke-opacity="1" stroke-width="1" stroke-linecap="square" stroke-linejoin="bevel" transform="matrix(0.995714,0,0,0.995714,239.101,297.156)"
font-family="Cantarell" font-size="14.6667" font-weight="400" font-style="normal" 
>
</g>

<g fill="none" stroke="#000000" stroke-opacity="1" stroke-width="1" stroke-linecap="square" stroke-linejoin="bevel" transform="matrix(0.995714,0,0,0.995714,239.101,363.262)"
font-family="Cantarell" font-size="14.6667" font-weight="400" font-style="normal" 
>
</g>

<g fill="#d6d6e6" fill-opacity="1" stroke="#8d92f5" stroke-opacity="1" stroke-width="1" stroke-linecap="square" stroke-linejoin="bevel" transform="matrix(0.995714,0,0,0.995714,239.101,363.262)"
font-family="Cantarell" font-size="14.6667" font-weight="400" font-style="normal" 
>
<rect vector-effect="non-scaling-stroke" x="0" y="0" width="51" height="32"/>
</g>

<g fill="#d6d6e6" fill-opacity="1" stroke="#212130" stroke-opacity="1" stroke-width="1" stroke-linecap="square" stroke-linejoin="bevel" transform="matrix(0.995714,0,0,0.995714,239.101,363.262)"
font-family="Roboto Condensed" font-size="12" font-weight="700" font-style="normal" 
>
</g>

<g fill="#d6d6e6" fill-opacity="1" stroke="#212130" stroke-opacity="1" stroke-width="1" stroke-linecap="square" stroke-linejoin="bevel" transform="matrix(0.995714,0,0,0.995714,239.101,363.262)"
font-family="Roboto Condensed" font-size="12" font-weight="700" font-style="normal" 
>
<text fill="#212130" fill-opacity="1" stroke="none" xml:space="preserve" x="5.15625" y="13" font-family="Roboto Condensed" font-size="12" font-weight="700" font-style="normal" 
 >Visitante</text>
</g>

<g fill="#d6d6e6" fill-opacity="1" stroke="#8d92f5" stroke-opacity="1" stroke-width="1" stroke-linecap="square" stroke-linejoin="bevel" transform="matrix(0.995714,0,0,0.995714,239.101,363.262)"
font-family="Roboto Condensed" font-size="12" font-weight="400" font-style="normal" 
>
<polyline fill="none" vector-effect="non-scaling-stroke" points="0,16 51,16 " />
</g>

<g fill="#d6d6e6" fill-opacity="1" stroke="#8d92f5" stroke-opacity="1" stroke-width="1" stroke-linecap="square" stroke-linejoin="bevel" transform="matrix(0.995714,0,0,0.995714,239.101,363.262)"
font-family="Roboto Condensed" font-size="12" font-weight="400" font-style="normal" 
>
<polyline fill="none" vector-effect="non-scaling-stroke" points="0,24 51,24 " />
</g>

<g fill="#d6d6e6" fill-opacity="1" stroke="#212130" stroke-opacity="1" stroke-width="1" stroke-linecap="square" stroke-linejoin="bevel" transform="matrix(0.995714,0,0,0.995714,239.101,363.262)"
font-family="Roboto Condensed" font-size="12" font-weight="400" font-style="normal" 
>
</g>

<g fill="#d6d6e6" fill-opacity="1" stroke="#212130" stroke-opacity="1" stroke-width="1" stroke-linecap="square" stroke-linejoin="bevel" transform="matrix(0.995714,0,0,0.995714,239.101,363.262)"
font-family="Roboto Condensed" font-size="12" font-weight="400" font-style="normal" 
>
</g>

<g fill="#d6d6e6" fill-opacity="1" stroke="#212130" stroke-opacity="1" stroke-width="1" stroke-linecap="square" stroke-linejoin="bevel" transform="matrix(0.995714,0,0,0.995714,239.101,363.262)"
font-family="Roboto Condensed" font-size="12" font-weight="400" font-style="normal" 
>
</g>

<g fill="#d6d6e6" fill-opacity="1" stroke="#212130" stroke-opacity="1" stroke-width="1" stroke-linecap="square" stroke-linejoin="bevel" transform="matrix(1,0,0,1,0,0)"
font-family="Roboto Condensed" font-size="12" font-weight="400" font-style="normal" 
>
</g>

<g fill="none" stroke="#000000" stroke-opacity="1" stroke-width="1" stroke-linecap="square" stroke-linejoin="bevel" transform="matrix(0.995714,0,0,0.995714,239.101,363.262)"
font-family="Cantarell" font-size="14.6667" font-weight="400" font-style="normal" 
>
</g>

<g fill="none" stroke="#000000" stroke-opacity="1" stroke-width="1" stroke-linecap="square" stroke-linejoin="bevel" transform="matrix(0.995714,0,0,0.995714,394.952,158.015)"
font-family="Cantarell" font-size="14.6667" font-weight="400" font-style="normal" 
>
</g>

<g fill="#d6d6e6" fill-opacity="1" stroke="#8d92f5" stroke-opacity="1" stroke-width="1" stroke-linecap="square" stroke-linejoin="bevel" transform="matrix(0.995714,0,0,0.995714,394.952,158.015)"
font-family="Cantarell" font-size="14.6667" font-weight="400" font-style="normal" 
>
<rect vector-effect="non-scaling-stroke" x="0" y="0" width="55" height="32"/>
</g>

<g fill="#d6d6e6" fill-opacity="1" stroke="#212130" stroke-opacity="1" stroke-width="1" stroke-linecap="square" stroke-linejoin="bevel" transform="matrix(0.995714,0,0,0.995714,394.952,158.015)"
font-family="Roboto Condensed" font-size="12" font-weight="700" font-style="normal" 
>
</g>

<g fill="#d6d6e6" fill-opacity="1" stroke="#212130" stroke-opacity="1" stroke-width="1" stroke-linecap="square" stroke-linejoin="bevel" transform="matrix(0.995714,0,0,0.995714,394.952,158.015)"
font-family="Roboto Condensed" font-size="12" font-weight="700" font-style="normal" 
>
<text fill="#212130" fill-opacity="1" stroke="none" xml:space="preserve" x="5.14062" y="13" font-family="Roboto Condensed" font-size="12" font-weight="700" font-style="normal" 
 >Agregado</text>
</g>

<g fill="#d6d6e6" fill-opacity="1" stroke="#8d92f5" stroke-opacity="1" stroke-width="1" stroke-linecap="square" stroke-linejoin="bevel" transform="matrix(0.995714,0,0,0.995714,394.952,158.015)"
font-family="Roboto Condensed" font-size="12" font-weight="400" font-style="normal" 
>
<polyline fill="none" vector-effect="non-scaling-stroke" points="0,16 55,16 " />
</g>

<g fill="#d6d6e6" fill-opacity="1" stroke="#8d92f5" stroke-opacity="1" stroke-width="1" stroke-linecap="square" stroke-linejoin="bevel" transform="matrix(0.995714,0,0,0.995714,394.952,158.015)"
font-family="Roboto Condensed" font-size="12" font-weight="400" font-style="normal" 
>
<polyline fill="none" vector-effect="non-scaling-stroke" points="0,24 55,24 " />
</g>

<g fill="#d6d6e6" fill-opacity="1" stroke="#212130" stroke-opacity="1" stroke-width="1" stroke-linecap="square" stroke-linejoin="bevel" transform="matrix(0.995714,0,0,0.995714,394.952,158.015)"
font-family="Roboto Condensed" font-size="12" font-weight="400" font-style="normal" 
>
</g>

<g fill="#d6d6e6" fill-opacity="1" stroke="#212130" stroke-opacity="1" stroke-width="1" stroke-linecap="square" stroke-linejoin="bevel" transform="matrix(0.995714,0,0,0.995714,394.952,158.015)"
font-family="Roboto Condensed" font-size="12" font-weight="400" font-style="normal" 
>
</g>

<g fill="#d6d6e6" fill-opacity="1" stroke="#212130" stroke-opacity="1" stroke-width="1" stroke-linecap="square" stroke-linejoin="bevel" transform="matrix(0.995714,0,0,0.995714,394.952,158.015)"
font-family="Roboto Condensed" font-size="12" font-weight="400" font-style="normal" 
>
</g>

<g fill="#d6d6e6" fill-opacity="1" stroke="#212130" stroke-opacity="1" stroke-width="1" stroke-linecap="square" stroke-linejoin="bevel" transform="matrix(1,0,0,1,0,0)"
font-family="Roboto Condensed" font-size="12" font-weight="400" font-style="normal" 
>
</g>

<g fill="none" stroke="#000000" stroke-opacity="1" stroke-width="1" stroke-linecap="square" stroke-linejoin="bevel" transform="matrix(0.995714,0,0,0.995714,394.952,158.015)"
font-family="Cantarell" font-size="14.6667" font-weight="400" font-style="normal" 
>
</g>

<g fill="none" stroke="#000000" stroke-opacity="1" stroke-width="1" stroke-linecap="square" stroke-linejoin="bevel" transform="matrix(0.995714,0,0,0.995714,394.952,226.72)"
font-family="Cantarell" font-size="14.6667" font-weight="400" font-style="normal" 
>
</g>

<g fill="#d6d6e6" fill-opacity="1" stroke="#8d92f5" stroke-opacity="1" stroke-width="1" stroke-linecap="square" stroke-linejoin="bevel" transform="matrix(0.995714,0,0,0.995714,394.952,226.72)"
font-family="Cantarell" font-size="14.6667" font-weight="400" font-style="normal" 
>
<rect vector-effect="non-scaling-stroke" x="0" y="0" width="35" height="32"/>
</g>

<g fill="#d6d6e6" fill-opacity="1" stroke="#212130" stroke-opacity="1" stroke-width="1" stroke-linecap="square" stroke-linejoin="bevel" transform="matrix(0.995714,0,0,0.995714,394.952,226.72)"
font-family="Roboto Condensed" font-size="12" font-weight="700" font-style="normal" 
>
</g>

<g fill="#d6d6e6" fill-opacity="1" stroke="#212130" stroke-opacity="1" stroke-width="1" stroke-linecap="square" stroke-linejoin="bevel" transform="matrix(0.995714,0,0,0.995714,394.952,226.72)"
font-family="Roboto Condensed" font-size="12" font-weight="700" font-style="normal" 
>
<text fill="#212130" fill-opacity="1" stroke="none" xml:space="preserve" x="5.04688" y="13" font-family="Roboto Condensed" font-size="12" font-weight="700" font-style="normal" 
 >Parte</text>
</g>

<g fill="#d6d6e6" fill-opacity="1" stroke="#8d92f5" stroke-opacity="1" stroke-width="1" stroke-linecap="square" stroke-linejoin="bevel" transform="matrix(0.995714,0,0,0.995714,394.952,226.72)"
font-family="Roboto Condensed" font-size="12" font-weight="400" font-style="normal" 
>
<polyline fill="none" vector-effect="non-scaling-stroke" points="0,16 35,16 " />
</g>

<g fill="#d6d6e6" fill-opacity="1" stroke="#8d92f5" stroke-opacity="1" stroke-width="1" stroke-linecap="square" stroke-linejoin="bevel" transform="matrix(0.995714,0,0,0.995714,394.952,226.72)"
font-family="Roboto Condensed" font-size="12" font-weight="400" font-style="normal" 
>
<polyline fill="none" vector-effect="non-scaling-stroke" points="0,24 35,24 " />
</g>

<g fill="#d6d6e6" fill-opacity="1" stroke="#212130" stroke-opacity="1" stroke-width="1" stroke-linecap="square" stroke-linejoin="bevel" transform="matrix(0.995714,0,0,0.995714,394.952,226.72)"
font-family="Roboto Condensed" font-size="12" font-weight="400" font-style="normal" 
>
</g>

<g fill="#d6d6e6" fill-opacity="1" stroke="#212130" stroke-opacity="1" stroke-width="1" stroke-linecap="square" stroke-linejoin="bevel" transform="matrix(0.995714,0,0,0.995714,394.952,226.72)"
font-family="Roboto Condensed" font-size="12" font-weight="400" font-style="normal" 
>
</g>

<g fill="#d6d6e6" fill-opacity="1" stroke="#212130" stroke-opacity="1" stroke-width="1" stroke-linecap="square" stroke-linejoin="bevel" transform="matrix(0.995714,0,0,0.995714,394.952,226.72)"
font-family="Roboto Condensed" font-size="12" font-weight="400" font-style="normal" 
>
</g>

<g fill="#d6d6e6" fill-opacity="1" stroke="#212130" stroke-opacity="1" stroke-width="1" stroke-linecap="square" stroke-linejoin="bevel" transform="matrix(1,0,0,1,0,0)"
font-family="Roboto Condensed" font-size="12" font-weight="400" font-style="normal" 
>
</g>

<g fill="none" stroke="#000000" stroke-opacity="1" stroke-width="1" stroke-linecap="square" stroke-linejoin="bevel" transform="matrix(0.995714,0,0,0.995714,394.952,226.72)"
font-family="Cantarell" font-size="14.6667" font-weight="400" font-style="normal" 
>
</g>

<g fill="none" stroke="#000000" stroke-opacity="1" stroke-width="1" stroke-linecap="square" stroke-linejoin="bevel" transform="matrix(0.995714,0,0,0.995714,394.952,295.424)"
font-family="Cantarell" font-size="14.6667" font-weight="400" font-style="normal" 
>
</g>

<g fill="#d6d6e6" fill-opacity="1" stroke="#8d92f5" stroke-opacity="1" stroke-width="1" stroke-linecap="square" stroke-linejoin="bevel" transform="matrix(0.995714,0,0,0.995714,394.952,295.424)"
font-family="Cantarell" font-size="14.6667" font-weight="400" font-style="normal" 
>
<rect vector-effect="non-scaling-stroke" x="0" y="0" width="51" height="32"/>
</g>

<g fill="#d6d6e6" fill-opacity="1" stroke="#212130" stroke-opacity="1" stroke-width="1" stroke-linecap="square" stroke-linejoin="bevel" transform="matrix(0.995714,0,0,0.995714,394.952,295.424)"
font-family="Roboto Condensed" font-size="12" font-weight="700" font-style="normal" 
>
</g>

<g fill="#d6d6e6" fill-opacity="1" stroke="#212130" stroke-opacity="1" stroke-width="1" stroke-linecap="square" stroke-linejoin="bevel" transform="matrix(0.995714,0,0,0.995714,394.952,295.424)"
font-family="Roboto Condensed" font-size="12" font-weight="700" font-style="normal" 
>
<text fill="#212130" fill-opacity="1" stroke="none" xml:space="preserve" x="5.40625" y="13" font-family="Roboto Condensed" font-size="12" font-weight="700" font-style="normal" 
 >Maquina</text>
</g>

<g fill="#d6d6e6" fill-opacity="1" stroke="#8d92f5" stroke-opacity="1" stroke-width="1" stroke-linecap="square" stroke-linejoin="bevel" transform="matrix(0.995714,0,0,0.995714,394.952,295.424)"
font-family="Roboto Condensed" font-size="12" font-weight="400" font-style="normal" 
>
<polyline fill="none" vector-effect="non-scaling-stroke" points="0,16 51,16 " />
</g>

<g fill="#d6d6e6" fill-opacity="1" stroke="#8d92f5" stroke-opacity="1" stroke-width="1" stroke-linecap="square" stroke-linejoin="bevel" transform="matrix(0.995714,0,0,0.995714,394.952,295.424)"
font-family="Roboto Condensed" font-size="12" font-weight="400" font-style="normal" 
>
<polyline fill="none" vector-effect="non-scaling-stroke" points="0,24 51,24 " />
</g>

<g fill="#d6d6e6" fill-opacity="1" stroke="#212130" stroke-opacity="1" stroke-width="1" stroke-linecap="square" stroke-linejoin="bevel" transform="matrix(0.995714,0,0,0.995714,394.952,295.424)"
font-family="Roboto Condensed" font-size="12" font-weight="400" font-style="normal" 
>
</g>

<g fill="#d6d6e6" fill-opacity="1" stroke="#212130" stroke-opacity="1" stroke-width="1" stroke-linecap="square" stroke-linejoin="bevel" transform="matrix(0.995714,0,0,0.995714,394.952,295.424)"
font-family="Roboto Condensed" font-size="12" font-weight="400" font-style="normal" 
>
</g>

<g fill="#d6d6e6" fill-opacity="1" stroke="#212130" stroke-opacity="1" stroke-width="1" stroke-linecap="square" stroke-linejoin="bevel" transform="matrix(0.995714,0,0,0.995714,394.952,295.424)"
font-family="Roboto Condensed" font-size="12" font-weight="400" font-style="normal" 
>
</g>

<g fill="#d6d6e6" fill-opacity="1" stroke="#212130" stroke-opacity="1" stroke-width="1" stroke-linecap="square" stroke-linejoin="bevel" transform="matrix(1,0,0,1,0,0)"
font-family="Roboto Condensed" font-size="12" font-weight="400" font-style="normal" 
>
</g>

<g fill="none" stroke="#000000" stroke-opacity="1" stroke-width="1" stroke-linecap="square" stroke-linejoin="bevel" transform="matrix(0.995714,0,0,0.995714,394.952,295.424)"
font-family="Cantarell" font-size="14.6667" font-weight="400" font-style="normal" 
>
</g>

<g fill="none" stroke="#000000" stroke-opacity="1" stroke-width="1" stroke-linecap="square" stroke-linejoin="bevel" transform="matrix(0.995714,0,0,0.995714,394.952,364.128)"
font-family="Cantarell" font-size="14.6667" font-weight="400" font-style="normal" 
>
</g>

<g fill="#d6d6e6" fill-opacity="1" stroke="#8d92f5" stroke-opacity="1" stroke-width="1" stroke-linecap="square" stroke-linejoin="bevel" transform="matrix(0.995714,0,0,0.995714,394.952,364.128)"
font-family="Cantarell" font-size="14.6667" font-weight="400" font-style="normal" 
>
<rect vector-effect="non-scaling-stroke" x="0" y="0" width="53" height="32"/>
</g>

<g fill="#d6d6e6" fill-opacity="1" stroke="#212130" stroke-opacity="1" stroke-width="1" stroke-linecap="square" stroke-linejoin="bevel" transform="matrix(0.995714,0,0,0.995714,394.952,364.128)"
font-family="Roboto Condensed" font-size="12" font-weight="700" font-style="normal" 
>
</g>

<g fill="#d6d6e6" fill-opacity="1" stroke="#212130" stroke-opacity="1" stroke-width="1" stroke-linecap="square" stroke-linejoin="bevel" transform="matrix(0.995714,0,0,0.995714,394.952,364.128)"
font-family="Roboto Condensed" font-size="12" font-weight="700" font-style="normal" 
>
<text fill="#212130" fill-opacity="1" stroke="none" xml:space="preserve" x="5.46875" y="13" font-family="Roboto Condensed" font-size="12" font-weight="700" font-style="normal" 
 >Artesano</text>
</g>

<g fill="#d6d6e6" fill-opacity="1" stroke="#8d92f5" stroke-opacity="1" stroke-width="1" stroke-linecap="square" stroke-linejoin="bevel" transform="matrix(0.995714,0,0,0.995714,394.952,364.128)"
font-family="Roboto Condensed" font-size="12" font-weight="400" font-style="normal" 
>
<polyline fill="none" vector-effect="non-scaling-stroke" points="0,16 53,16 " />
</g>

<g fill="#d6d6e6" fill-opacity="1" stroke="#8d92f5" stroke-opacity="1" stroke-width="1" stroke-linecap="square" stroke-linejoin="bevel" transform="matrix(0.995714,0,0,0.995714,394.952,364.128)"
font-family="Roboto Condensed" font-size="12" font-weight="400" font-style="normal" 
>
<polyline fill="none" vector-effect="non-scaling-stroke" points="0,24 53,24 " />
</g>

<g fill="#d6d6e6" fill-opacity="1" stroke="#212130" stroke-opacity="1" stroke-width="1" stroke-linecap="square" stroke-linejoin="bevel" transform="matrix(0.995714,0,0,0.995714,394.952,364.128)"
font-family="Roboto Condensed" font-size="12" font-weight="400" font-style="normal" 
>
</g>

<g fill="#d6d6e6" fill-opacity="1" stroke="#212130" stroke-opacity="1" stroke-width="1" stroke-linecap="square" stroke-linejoin="bevel" transform="matrix(0.995714,0,0,0.995714,394.952,364.128)"
font-family="Roboto Condensed" font-size="12" font-weight="400" font-style="normal" 
>
</g>

<g fill="#d6d6e6" fill-opacity="1" stroke="#212130" stroke-opacity="1" stroke-width="1" stroke-linecap="square" stroke-linejoin="bevel" transform="matrix(0.995714,0,0,0.995714,394.952,364.128)"
font-family="Roboto Condensed" font-size="12" font-weight="400" font-style="normal" 
>
</g>

<g fill="#d6d6e6" fill-opacity="1" stroke="#212130" stroke-opacity="1" stroke-width="1" stroke-linecap="square" stroke-linejoin="bevel" transform="matrix(1,0,0,1,0,0)"
font-family="Roboto Condensed" font-size="12" font-weight="400" font-style="normal" 
>
</g>

<g fill="none" stroke="#000000" stroke-opacity="1" stroke-width="1" stroke-linecap="square" stroke-linejoin="bevel" transform="matrix(0.995714,0,0,0.995714,394.952,364.128)"
font-family="Cantarell" font-size="14.6667" font-weight="400" font-style="normal" 
>
</g>

<g fill="none" stroke="#000000" stroke-opacity="1" stroke-width="1" stroke-linecap="square" stroke-linejoin="bevel" transform="matrix(0.995714,0,0,0.995714,3194.21,1266.85)"
font-family="Cantarell" font-size="14.6667" font-weight="400" font-style="normal" 
>
</g>

<g fill="none" stroke="#000000" stroke-opacity="1" stroke-width="1" stroke-linecap="square" stroke-linejoin="bevel" transform="matrix(0.995714,0,0,0.995714,3194.21,1266.85)"
font-family="Cantarell" font-size="14.6667" font-weight="400" font-style="normal" 
>
</g>

<g fill="none" stroke="#000000" stroke-opacity="1" stroke-width="1" stroke-linecap="square" stroke-linejoin="bevel" transform="matrix(0,0.995714,-0.995714,0,285.9,105.243)"
font-family="Cantarell" font-size="14.6667" font-weight="400" font-style="normal" 
>
</g>

<g fill="#ffffff" fill-opacity="1" stroke="#8d92f5" stroke-opacity="1" stroke-width="1" stroke-linecap="round" stroke-linejoin="round" transform="matrix(0,0.995714,-0.995714,0,285.9,105.243)"
font-family="Cantarell" font-size="14.6667" font-weight="400" font-style="normal" 
>
<path vector-effect="none" fill-rule="evenodd" d="M-6,0 L0,10 L6,0 L-6,0"/>
</g>

<g fill="none" stroke="#000000" stroke-opacity="1" stroke-width="1" stroke-linecap="square" stroke-linejoin="bevel" transform="matrix(0,0.995714,-0.995714,0,285.9,105.243)"
font-family="Cantarell" font-size="14.6667" font-weight="400" font-style="normal" 
>
</g>

<g fill="none" stroke="#000000" stroke-opacity="1" stroke-width="1" stroke-linecap="square" stroke-linejoin="bevel" transform="matrix(0.995714,0,0,0.995714,3194.21,1266.85)"
font-family="Cantarell" font-size="14.6667" font-weight="400" font-style="normal" 
>
</g>

<g fill="none" stroke="#8d92f5" stroke-opacity="1" stroke-width="1" stroke-linecap="round" stroke-linejoin="round" transform="matrix(0.995714,0,0,0.995714,3194.21,1266.85)"
font-family="Cantarell" font-size="14.6667" font-weight="400" font-style="normal" 
>
<path vector-effect="none" fill-rule="evenodd" d="M-2811.3,-1166.61 L-2920.83,-1166.61"/>
</g>

<g fill="none" stroke="#000000" stroke-opacity="1" stroke-width="1" stroke-linecap="square" stroke-linejoin="bevel" transform="matrix(0.995714,0,0,0.995714,3194.21,1266.85)"
font-family="Cantarell" font-size="14.6667" font-weight="400" font-style="normal" 
>
</g>

<g fill="none" stroke="#000000" stroke-opacity="1" stroke-width="1" stroke-linecap="square" stroke-linejoin="bevel" transform="matrix(0.995714,0,0,0.995714,3194.21,1266.85)"
font-family="Cantarell" font-size="14.6667" font-weight="400" font-style="normal" 
>
</g>

<g fill="none" stroke="#000000" stroke-opacity="1" stroke-width="1" stroke-linecap="square" stroke-linejoin="bevel" transform="matrix(0.995714,0,0,0.995714,3194.21,1266.85)"
font-family="Cantarell" font-size="14.6667" font-weight="400" font-style="normal" 
>
</g>

<g fill="none" stroke="#000000" stroke-opacity="1" stroke-width="1" stroke-linecap="square" stroke-linejoin="bevel" transform="matrix(1.46513e-15,0.995714,-0.995714,1.46513e-15,289.883,176.891)"
font-family="Cantarell" font-size="14.6667" font-weight="400" font-style="normal" 
>
</g>

<g fill="#ffffff" fill-opacity="1" stroke="#8d92f5" stroke-opacity="1" stroke-width="1" stroke-linecap="round" stroke-linejoin="round" transform="matrix(1.46513e-15,0.995714,-0.995714,1.46513e-15,289.883,176.891)"
font-family="Cantarell" font-size="14.6667" font-weight="400" font-style="normal" 
>
<path vector-effect="none" fill-rule="evenodd" d="M0,-10 L-5,0 L0,10 L5,0 L0,-10"/>
</g>

<g fill="none" stroke="#000000" stroke-opacity="1" stroke-width="1" stroke-linecap="square" stroke-linejoin="bevel" transform="matrix(1.46513e-15,0.995714,-0.995714,1.46513e-15,289.883,176.891)"
font-family="Cantarell" font-size="14.6667" font-weight="400" font-style="normal" 
>
</g>

<g fill="none" stroke="#000000" stroke-opacity="1" stroke-width="1" stroke-linecap="square" stroke-linejoin="bevel" transform="matrix(0.995714,0,0,0.995714,3194.21,1266.85)"
font-family="Cantarell" font-size="14.6667" font-weight="400" font-style="normal" 
>
</g>

<g fill="none" stroke="#8d92f5" stroke-opacity="1" stroke-width="1" stroke-linecap="round" stroke-linejoin="round" transform="matrix(0.995714,0,0,0.995714,3194.21,1266.85)"
font-family="Cantarell" font-size="14.6667" font-weight="400" font-style="normal" 
>
<path vector-effect="none" fill-rule="evenodd" d="M-2906.83,-1094.65 L-2811.3,-1094.65"/>
</g>

<g fill="none" stroke="#000000" stroke-opacity="1" stroke-width="1" stroke-linecap="square" stroke-linejoin="bevel" transform="matrix(0.995714,0,0,0.995714,3194.21,1266.85)"
font-family="Cantarell" font-size="14.6667" font-weight="400" font-style="normal" 
>
</g>

<g fill="none" stroke="#000000" stroke-opacity="1" stroke-width="1" stroke-linecap="square" stroke-linejoin="bevel" transform="matrix(0.995714,0,0,0.995714,3194.21,1266.85)"
font-family="Cantarell" font-size="14.6667" font-weight="400" font-style="normal" 
>
</g>

<g fill="none" stroke="#000000" stroke-opacity="1" stroke-width="1" stroke-linecap="square" stroke-linejoin="bevel" transform="matrix(0.995714,0,0,0.995714,3194.21,1266.85)"
font-family="Cantarell" font-size="14.6667" font-weight="400" font-style="normal" 
>
</g>

<g fill="none" stroke="#000000" stroke-opacity="1" stroke-width="1" stroke-linecap="square" stroke-linejoin="bevel" transform="matrix(-5.36597e-15,0.995714,-0.995714,-5.36597e-15,274.947,246.461)"
font-family="Cantarell" font-size="14.6667" font-weight="400" font-style="normal" 
>
</g>

<g fill="#8d92f5" fill-opacity="1" stroke="#8d92f5" stroke-opacity="1" stroke-width="1" stroke-linecap="round" stroke-linejoin="round" transform="matrix(-5.36597e-15,0.995714,-0.995714,-5.36597e-15,274.947,246.461)"
font-family="Cantarell" font-size="14.6667" font-weight="400" font-style="normal" 
>
<path vector-effect="none" fill-rule="evenodd" d="M0,-10 L-5,0 L0,10 L5,0 L0,-10"/>
</g>

<g fill="none" stroke="#000000" stroke-opacity="1" stroke-width="1" stroke-linecap="square" stroke-linejoin="bevel" transform="matrix(-5.36597e-15,0.995714,-0.995714,-5.36597e-15,274.947,246.461)"
font-family="Cantarell" font-size="14.6667" font-weight="400" font-style="normal" 
>
</g>

<g fill="none" stroke="#000000" stroke-opacity="1" stroke-width="1" stroke-linecap="square" stroke-linejoin="bevel" transform="matrix(0.995714,0,0,0.995714,3194.21,1266.85)"
font-family="Cantarell" font-size="14.6667" font-weight="400" font-style="normal" 
>
</g>

<g fill="none" stroke="#8d92f5" stroke-opacity="1" stroke-width="1" stroke-linecap="round" stroke-linejoin="round" transform="matrix(0.995714,0,0,0.995714,3194.21,1266.85)"
font-family="Cantarell" font-size="14.6667" font-weight="400" font-style="normal" 
>
<path vector-effect="none" fill-rule="evenodd" d="M-2921.83,-1024.78 L-2811.3,-1024.78"/>
</g>

<g fill="none" stroke="#000000" stroke-opacity="1" stroke-width="1" stroke-linecap="square" stroke-linejoin="bevel" transform="matrix(0.995714,0,0,0.995714,3194.21,1266.85)"
font-family="Cantarell" font-size="14.6667" font-weight="400" font-style="normal" 
>
</g>

<g fill="none" stroke="#000000" stroke-opacity="1" stroke-width="1" stroke-linecap="square" stroke-linejoin="bevel" transform="matrix(0.995714,0,0,0.995714,3194.21,1266.85)"
font-family="Cantarell" font-size="14.6667" font-weight="400" font-style="normal" 
>
</g>

<g fill="none" stroke="#000000" stroke-opacity="1" stroke-width="1" stroke-linecap="square" stroke-linejoin="bevel" transform="matrix(0.995714,0,0,0.995714,3194.21,1266.85)"
font-family="Cantarell" font-size="14.6667" font-weight="400" font-style="normal" 
>
</g>

<g fill="none" stroke="#000000" stroke-opacity="1" stroke-width="1" stroke-linecap="square" stroke-linejoin="bevel" transform="matrix(1.95042e-15,-0.995714,0.995714,1.95042e-15,384.995,314.299)"
font-family="Cantarell" font-size="14.6667" font-weight="400" font-style="normal" 
>
</g>

<g fill="none" stroke="#8d92f5" stroke-opacity="1" stroke-width="1" stroke-linecap="round" stroke-linejoin="round" transform="matrix(1.95042e-15,-0.995714,0.995714,1.95042e-15,384.995,314.299)"
font-family="Cantarell" font-size="14.6667" font-weight="400" font-style="normal" 
>
<path vector-effect="none" fill-rule="evenodd" d="M-6,0 L0,10 L6,0"/>
</g>

<g fill="none" stroke="#000000" stroke-opacity="1" stroke-width="1" stroke-linecap="square" stroke-linejoin="bevel" transform="matrix(1.95042e-15,-0.995714,0.995714,1.95042e-15,384.995,314.299)"
font-family="Cantarell" font-size="14.6667" font-weight="400" font-style="normal" 
>
</g>

<g fill="none" stroke="#000000" stroke-opacity="1" stroke-width="1" stroke-linecap="square" stroke-linejoin="bevel" transform="matrix(0.995714,0,0,0.995714,3194.21,1266.85)"
font-family="Cantarell" font-size="14.6667" font-weight="400" font-style="normal" 
>
</g>

<g fill="none" stroke="#8d92f5" stroke-opacity="1" stroke-width="1" stroke-linecap="round" stroke-linejoin="round" transform="matrix(0.995714,0,0,0.995714,3194.21,1266.85)"
font-family="Cantarell" font-size="14.6667" font-weight="400" font-style="normal" 
>
<path vector-effect="none" fill-rule="evenodd" d="M-2927.83,-956.652 L-2811.3,-956.652"/>
</g>

<g fill="none" stroke="#000000" stroke-opacity="1" stroke-width="1" stroke-linecap="square" stroke-linejoin="bevel" transform="matrix(0.995714,0,0,0.995714,3194.21,1266.85)"
font-family="Cantarell" font-size="14.6667" font-weight="400" font-style="normal" 
>
</g>

<g fill="none" stroke="#000000" stroke-opacity="1" stroke-width="1" stroke-linecap="square" stroke-linejoin="bevel" transform="matrix(0.995714,0,0,0.995714,3194.21,1266.85)"
font-family="Cantarell" font-size="14.6667" font-weight="400" font-style="normal" 
>
</g>

<g fill="none" stroke="#000000" stroke-opacity="1" stroke-width="1" stroke-linecap="square" stroke-linejoin="bevel" transform="matrix(0.995714,0,0,0.995714,3194.21,1266.85)"
font-family="Cantarell" font-size="14.6667" font-weight="400" font-style="normal" 
>
</g>

<g fill="none" stroke="#000000" stroke-opacity="1" stroke-width="1" stroke-linecap="square" stroke-linejoin="bevel" transform="matrix(0,-0.995714,0.995714,0,384.995,380.06)"
font-family="Cantarell" font-size="14.6667" font-weight="400" font-style="normal" 
>
</g>

<g fill="none" stroke="#8d92f5" stroke-opacity="1" stroke-dasharray="4,2" stroke-dashoffset="0" stroke-width="1" stroke-linecap="round" stroke-linejoin="round" transform="matrix(0,-0.995714,0.995714,0,384.995,380.06)"
font-family="Cantarell" font-size="14.6667" font-weight="400" font-style="normal" 
>
<path vector-effect="non-scaling-stroke" fill-rule="evenodd" d="M-6,0 L0,10 L6,0"/>
</g>

<g fill="none" stroke="#000000" stroke-opacity="1" stroke-width="1" stroke-linecap="square" stroke-linejoin="bevel" transform="matrix(0,-0.995714,0.995714,0,384.995,380.06)"
font-family="Cantarell" font-size="14.6667" font-weight="400" font-style="normal" 
>
</g>

<g fill="none" stroke="#000000" stroke-opacity="1" stroke-width="1" stroke-linecap="square" stroke-linejoin="bevel" transform="matrix(0.995714,0,0,0.995714,3194.21,1266.85)"
font-family="Cantarell" font-size="14.6667" font-weight="400" font-style="normal" 
>
</g>

<g fill="none" stroke="#8d92f5" stroke-opacity="1" stroke-dasharray="4,2" stroke-dashoffset="0" stroke-width="1" stroke-linecap="round" stroke-linejoin="round" transform="matrix(0.995714,0,0,0.995714,3194.21,1266.85)"
font-family="Cantarell" font-size="14.6667" font-weight="400" font-style="normal" 
>
<path vector-effect="non-scaling-stroke" fill-rule="evenodd" d="M-2916.83,-890.609 L-2811.3,-890.609"/>
</g>

<g fill="none" stroke="#000000" stroke-opacity="1" stroke-width="1" stroke-linecap="square" stroke-linejoin="bevel" transform="matrix(0.995714,0,0,0.995714,3194.21,1266.85)"
font-family="Cantarell" font-size="14.6667" font-weight="400" font-style="normal" 
>
</g>

<g fill="none" stroke="#000000" stroke-opacity="1" stroke-width="1" stroke-linecap="square" stroke-linejoin="bevel" transform="matrix(0.995714,0,0,0.995714,520.498,90.177)"
font-family="Cantarell" font-size="14.6667" font-weight="400" font-style="normal" 
>
</g>

<g fill="#d6d6e6" fill-opacity="1" stroke="#8d92f5" stroke-opacity="1" stroke-width="1" stroke-linecap="square" stroke-linejoin="bevel" transform="matrix(0.995714,0,0,0.995714,520.498,90.177)"
font-family="Cantarell" font-size="14.6667" font-weight="400" font-style="normal" 
>
<path vector-effect="non-scaling-stroke" fill-rule="evenodd" d="M0,0 L0,32 L74,32 L74,10 L64,0 L0,0"/>
<polyline fill="none" vector-effect="non-scaling-stroke" points="64,0 64,10 " />
<polyline fill="none" vector-effect="non-scaling-stroke" points="64,10 74,10 " />
</g>

<g fill="#d6d6e6" fill-opacity="1" stroke="#000000" stroke-opacity="1" stroke-width="1" stroke-linecap="square" stroke-linejoin="bevel" transform="matrix(0.995714,0,0,0.995714,520.498,90.177)"
font-family="Roboto Condensed" font-size="12" font-weight="400" font-style="normal" 
>
</g>

<g fill="#d6d6e6" fill-opacity="1" stroke="#000000" stroke-opacity="1" stroke-width="1" stroke-linecap="square" stroke-linejoin="bevel" transform="matrix(0.995714,0,0,0.995714,520.498,90.177)"
font-family="Roboto Condensed" font-size="12" font-weight="400" font-style="normal" 
>
</g>

<g fill="#d6d6e6" fill-opacity="1" stroke="#000000" stroke-opacity="1" stroke-width="1" stroke-linecap="square" stroke-linejoin="bevel" transform="matrix(0.995714,0,0,0.995714,520.498,90.177)"
font-family="Roboto Condensed" font-size="12" font-weight="400" font-style="normal" 
>
<text fill="#000000" fill-opacity="1" stroke="none" xml:space="preserve" x="9" y="21" font-family="Roboto Condensed" font-size="12" font-weight="400" font-style="normal" 
 > Herencia</text>
</g>

<g fill="#d6d6e6" fill-opacity="1" stroke="#000000" stroke-opacity="1" stroke-width="1" stroke-linecap="square" stroke-linejoin="bevel" transform="matrix(0.995714,0,0,0.995714,520.498,90.177)"
font-family="Roboto Condensed" font-size="12" font-weight="400" font-style="normal" 
>
</g>

<g fill="#d6d6e6" fill-opacity="1" stroke="#000000" stroke-opacity="1" stroke-width="1" stroke-linecap="square" stroke-linejoin="bevel" transform="matrix(1,0,0,1,0,0)"
font-family="Roboto Condensed" font-size="12" font-weight="400" font-style="normal" 
>
</g>

<g fill="#d6d6e6" fill-opacity="1" stroke="#000000" stroke-opacity="1" stroke-width="1" stroke-linecap="square" stroke-linejoin="bevel" transform="matrix(0.995714,0,0,0.995714,520.498,90.177)"
font-family="Roboto Condensed" font-size="12" font-weight="400" font-style="normal" 
>
</g>

<g fill="none" stroke="#000000" stroke-opacity="1" stroke-width="1" stroke-linecap="square" stroke-linejoin="bevel" transform="matrix(0.995714,0,0,0.995714,520.498,90.177)"
font-family="Cantarell" font-size="14.6667" font-weight="400" font-style="normal" 
>
</g>

<g fill="none" stroke="#000000" stroke-opacity="1" stroke-width="1" stroke-linecap="square" stroke-linejoin="bevel" transform="matrix(0.995714,0,0,0.995714,699.727,90.177)"
font-family="Cantarell" font-size="14.6667" font-weight="400" font-style="normal" 
>
</g>

<g fill="#d6d6e6" fill-opacity="1" stroke="#8d92f5" stroke-opacity="1" stroke-width="1" stroke-linecap="square" stroke-linejoin="bevel" transform="matrix(0.995714,0,0,0.995714,699.727,90.177)"
font-family="Cantarell" font-size="14.6667" font-weight="400" font-style="normal" 
>
<path vector-effect="non-scaling-stroke" fill-rule="evenodd" d="M0,0 L0,50 L289,50 L289,10 L279,0 L0,0"/>
<polyline fill="none" vector-effect="non-scaling-stroke" points="279,0 279,10 " />
<polyline fill="none" vector-effect="non-scaling-stroke" points="279,10 289,10 " />
</g>

<g fill="#d6d6e6" fill-opacity="1" stroke="#000000" stroke-opacity="1" stroke-width="1" stroke-linecap="square" stroke-linejoin="bevel" transform="matrix(0.995714,0,0,0.995714,699.727,90.177)"
font-family="Roboto Condensed" font-size="12" font-weight="400" font-style="normal" 
>
</g>

<g fill="#d6d6e6" fill-opacity="1" stroke="#000000" stroke-opacity="1" stroke-width="1" stroke-linecap="square" stroke-linejoin="bevel" transform="matrix(0.995714,0,0,0.995714,699.727,90.177)"
font-family="Roboto Condensed" font-size="12" font-weight="400" font-style="normal" 
>
<text fill="#000000" fill-opacity="1" stroke="none" xml:space="preserve" x="9" y="21" font-family="Roboto Condensed" font-size="12" font-weight="400" font-style="normal" 
 > Clases Base/Padre y Derivada/Hijo. La clase derivada</text>
</g>

<g fill="#d6d6e6" fill-opacity="1" stroke="#000000" stroke-opacity="1" stroke-width="1" stroke-linecap="square" stroke-linejoin="bevel" transform="matrix(0.995714,0,0,0.995714,699.727,90.177)"
font-family="Roboto Condensed" font-size="12" font-weight="400" font-style="normal" 
>
</g>

<g fill="#d6d6e6" fill-opacity="1" stroke="#000000" stroke-opacity="1" stroke-width="1" stroke-linecap="square" stroke-linejoin="bevel" transform="matrix(0.995714,0,0,0.995714,699.727,90.177)"
font-family="Roboto Condensed" font-size="12" font-weight="400" font-style="normal" 
>
</g>

<g fill="#d6d6e6" fill-opacity="1" stroke="#000000" stroke-opacity="1" stroke-width="1" stroke-linecap="square" stroke-linejoin="bevel" transform="matrix(0.995714,0,0,0.995714,699.727,90.177)"
font-family="Roboto Condensed" font-size="12" font-weight="400" font-style="normal" 
>
<text fill="#000000" fill-opacity="1" stroke="none" xml:space="preserve" x="9" y="37" font-family="Roboto Condensed" font-size="12" font-weight="400" font-style="normal" 
 >se amplica con los elementos de la clase base.</text>
</g>

<g fill="#d6d6e6" fill-opacity="1" stroke="#000000" stroke-opacity="1" stroke-width="1" stroke-linecap="square" stroke-linejoin="bevel" transform="matrix(0.995714,0,0,0.995714,699.727,90.177)"
font-family="Roboto Condensed" font-size="12" font-weight="400" font-style="normal" 
>
</g>

<g fill="#d6d6e6" fill-opacity="1" stroke="#000000" stroke-opacity="1" stroke-width="1" stroke-linecap="square" stroke-linejoin="bevel" transform="matrix(1,0,0,1,0,0)"
font-family="Roboto Condensed" font-size="12" font-weight="400" font-style="normal" 
>
</g>

<g fill="#d6d6e6" fill-opacity="1" stroke="#000000" stroke-opacity="1" stroke-width="1" stroke-linecap="square" stroke-linejoin="bevel" transform="matrix(0.995714,0,0,0.995714,699.727,90.177)"
font-family="Roboto Condensed" font-size="12" font-weight="400" font-style="normal" 
>
</g>

<g fill="none" stroke="#000000" stroke-opacity="1" stroke-width="1" stroke-linecap="square" stroke-linejoin="bevel" transform="matrix(0.995714,0,0,0.995714,699.727,90.177)"
font-family="Cantarell" font-size="14.6667" font-weight="400" font-style="normal" 
>
</g>

<g fill="none" stroke="#000000" stroke-opacity="1" stroke-width="1" stroke-linecap="square" stroke-linejoin="bevel" transform="matrix(0.995714,0,0,0.995714,699.727,163.773)"
font-family="Cantarell" font-size="14.6667" font-weight="400" font-style="normal" 
>
</g>

<g fill="#d6d6e6" fill-opacity="1" stroke="#8d92f5" stroke-opacity="1" stroke-width="1" stroke-linecap="square" stroke-linejoin="bevel" transform="matrix(0.995714,0,0,0.995714,699.727,163.773)"
font-family="Cantarell" font-size="14.6667" font-weight="400" font-style="normal" 
>
<path vector-effect="non-scaling-stroke" fill-rule="evenodd" d="M0,0 L0,45 L293,45 L293,10 L283,0 L0,0"/>
<polyline fill="none" vector-effect="non-scaling-stroke" points="283,0 283,10 " />
<polyline fill="none" vector-effect="non-scaling-stroke" points="283,10 293,10 " />
</g>

<g fill="#d6d6e6" fill-opacity="1" stroke="#000000" stroke-opacity="1" stroke-width="1" stroke-linecap="square" stroke-linejoin="bevel" transform="matrix(0.995714,0,0,0.995714,699.727,163.773)"
font-family="Roboto Condensed" font-size="12" font-weight="400" font-style="normal" 
>
</g>

<g fill="#d6d6e6" fill-opacity="1" stroke="#000000" stroke-opacity="1" stroke-width="1" stroke-linecap="square" stroke-linejoin="bevel" transform="matrix(0.995714,0,0,0.995714,699.727,163.773)"
font-family="Roboto Condensed" font-size="12" font-weight="400" font-style="normal" 
>
<text fill="#000000" fill-opacity="1" stroke="none" xml:space="preserve" x="9" y="21" font-family="Roboto Condensed" font-size="12" font-weight="400" font-style="normal" 
 > La muerte del Gestor no implica la muerte del agregado.</text>
</g>

<g fill="#d6d6e6" fill-opacity="1" stroke="#000000" stroke-opacity="1" stroke-width="1" stroke-linecap="square" stroke-linejoin="bevel" transform="matrix(0.995714,0,0,0.995714,699.727,163.773)"
font-family="Roboto Condensed" font-size="12" font-weight="400" font-style="normal" 
>
</g>

<g fill="#d6d6e6" fill-opacity="1" stroke="#000000" stroke-opacity="1" stroke-width="1" stroke-linecap="square" stroke-linejoin="bevel" transform="matrix(0.995714,0,0,0.995714,699.727,163.773)"
font-family="Roboto Condensed" font-size="12" font-weight="400" font-style="normal" 
>
<text fill="#000000" fill-opacity="1" stroke="none" xml:space="preserve" x="9" y="37" font-family="Roboto Condensed" font-size="12" font-weight="400" font-style="normal" 
 >Típicamente un puntero.</text>
</g>

<g fill="none" stroke="#000000" stroke-opacity="1" stroke-width="1" stroke-linecap="square" stroke-linejoin="bevel" transform="matrix(0.995714,0,0,0.995714,699.727,163.773)"
font-family="Cantarell" font-size="14.6667" font-weight="400" font-style="normal" 
>
</g>

<g fill="none" stroke="#000000" stroke-opacity="1" stroke-width="1" stroke-linecap="square" stroke-linejoin="bevel" transform="matrix(0.995714,0,0,0.995714,520.498,163.773)"
font-family="Cantarell" font-size="14.6667" font-weight="400" font-style="normal" 
>
</g>

<g fill="#d6d6e6" fill-opacity="1" stroke="#8d92f5" stroke-opacity="1" stroke-width="1" stroke-linecap="square" stroke-linejoin="bevel" transform="matrix(0.995714,0,0,0.995714,520.498,163.773)"
font-family="Cantarell" font-size="14.6667" font-weight="400" font-style="normal" 
>
<path vector-effect="non-scaling-stroke" fill-rule="evenodd" d="M0,0 L0,30 L82,30 L82,10 L72,0 L0,0"/>
<polyline fill="none" vector-effect="non-scaling-stroke" points="72,0 72,10 " />
<polyline fill="none" vector-effect="non-scaling-stroke" points="72,10 82,10 " />
</g>

<g fill="#d6d6e6" fill-opacity="1" stroke="#000000" stroke-opacity="1" stroke-width="1" stroke-linecap="square" stroke-linejoin="bevel" transform="matrix(0.995714,0,0,0.995714,520.498,163.773)"
font-family="Roboto Condensed" font-size="12" font-weight="400" font-style="normal" 
>
</g>

<g fill="#d6d6e6" fill-opacity="1" stroke="#000000" stroke-opacity="1" stroke-width="1" stroke-linecap="square" stroke-linejoin="bevel" transform="matrix(0.995714,0,0,0.995714,520.498,163.773)"
font-family="Roboto Condensed" font-size="12" font-weight="400" font-style="normal" 
>
</g>

<g fill="#d6d6e6" fill-opacity="1" stroke="#000000" stroke-opacity="1" stroke-width="1" stroke-linecap="square" stroke-linejoin="bevel" transform="matrix(0.995714,0,0,0.995714,520.498,163.773)"
font-family="Roboto Condensed" font-size="12" font-weight="400" font-style="normal" 
>
<text fill="#000000" fill-opacity="1" stroke="none" xml:space="preserve" x="9" y="21" font-family="Roboto Condensed" font-size="12" font-weight="400" font-style="normal" 
 > Agregación</text>
</g>

<g fill="#d6d6e6" fill-opacity="1" stroke="#000000" stroke-opacity="1" stroke-width="1" stroke-linecap="square" stroke-linejoin="bevel" transform="matrix(0.995714,0,0,0.995714,520.498,163.773)"
font-family="Roboto Condensed" font-size="12" font-weight="400" font-style="normal" 
>
</g>

<g fill="#d6d6e6" fill-opacity="1" stroke="#000000" stroke-opacity="1" stroke-width="1" stroke-linecap="square" stroke-linejoin="bevel" transform="matrix(1,0,0,1,0,0)"
font-family="Roboto Condensed" font-size="12" font-weight="400" font-style="normal" 
>
</g>

<g fill="#d6d6e6" fill-opacity="1" stroke="#000000" stroke-opacity="1" stroke-width="1" stroke-linecap="square" stroke-linejoin="bevel" transform="matrix(0.995714,0,0,0.995714,520.498,163.773)"
font-family="Roboto Condensed" font-size="12" font-weight="400" font-style="normal" 
>
</g>

<g fill="none" stroke="#000000" stroke-opacity="1" stroke-width="1" stroke-linecap="square" stroke-linejoin="bevel" transform="matrix(0.995714,0,0,0.995714,520.498,163.773)"
font-family="Cantarell" font-size="14.6667" font-weight="400" font-style="normal" 
>
</g>

<g fill="none" stroke="#000000" stroke-opacity="1" stroke-width="1" stroke-linecap="square" stroke-linejoin="bevel" transform="matrix(0.995714,0,0,0.995714,699.727,231.222)"
font-family="Cantarell" font-size="14.6667" font-weight="400" font-style="normal" 
>
</g>

<g fill="#d6d6e6" fill-opacity="1" stroke="#8d92f5" stroke-opacity="1" stroke-width="1" stroke-linecap="square" stroke-linejoin="bevel" transform="matrix(0.995714,0,0,0.995714,699.727,231.222)"
font-family="Cantarell" font-size="14.6667" font-weight="400" font-style="normal" 
>
<path vector-effect="non-scaling-stroke" fill-rule="evenodd" d="M0,0 L0,42 L295,42 L295,10 L285,0 L0,0"/>
<polyline fill="none" vector-effect="non-scaling-stroke" points="285,0 285,10 " />
<polyline fill="none" vector-effect="non-scaling-stroke" points="285,10 295,10 " />
</g>

<g fill="#d6d6e6" fill-opacity="1" stroke="#000000" stroke-opacity="1" stroke-width="1" stroke-linecap="square" stroke-linejoin="bevel" transform="matrix(0.995714,0,0,0.995714,699.727,231.222)"
font-family="Roboto Condensed" font-size="12" font-weight="400" font-style="normal" 
>
</g>

<g fill="#d6d6e6" fill-opacity="1" stroke="#000000" stroke-opacity="1" stroke-width="1" stroke-linecap="square" stroke-linejoin="bevel" transform="matrix(0.995714,0,0,0.995714,699.727,231.222)"
font-family="Roboto Condensed" font-size="12" font-weight="400" font-style="normal" 
>
<text fill="#000000" fill-opacity="1" stroke="none" xml:space="preserve" x="9" y="21" font-family="Roboto Condensed" font-size="12" font-weight="400" font-style="normal" 
 > La muerte del ser implica la muerte de la parte.</text>
</g>

<g fill="#d6d6e6" fill-opacity="1" stroke="#000000" stroke-opacity="1" stroke-width="1" stroke-linecap="square" stroke-linejoin="bevel" transform="matrix(0.995714,0,0,0.995714,699.727,231.222)"
font-family="Roboto Condensed" font-size="12" font-weight="400" font-style="normal" 
>
</g>

<g fill="#d6d6e6" fill-opacity="1" stroke="#000000" stroke-opacity="1" stroke-width="1" stroke-linecap="square" stroke-linejoin="bevel" transform="matrix(0.995714,0,0,0.995714,699.727,231.222)"
font-family="Roboto Condensed" font-size="12" font-weight="400" font-style="normal" 
>
<text fill="#000000" fill-opacity="1" stroke="none" xml:space="preserve" x="9" y="37" font-family="Roboto Condensed" font-size="12" font-weight="400" font-style="normal" 
 >Típicamente un miembro.</text>
</g>

<g fill="none" stroke="#000000" stroke-opacity="1" stroke-width="1" stroke-linecap="square" stroke-linejoin="bevel" transform="matrix(0.995714,0,0,0.995714,699.727,231.222)"
font-family="Cantarell" font-size="14.6667" font-weight="400" font-style="normal" 
>
</g>

<g fill="none" stroke="#000000" stroke-opacity="1" stroke-width="1" stroke-linecap="square" stroke-linejoin="bevel" transform="matrix(0.995714,0,0,0.995714,520.498,231.309)"
font-family="Cantarell" font-size="14.6667" font-weight="400" font-style="normal" 
>
</g>

<g fill="#d6d6e6" fill-opacity="1" stroke="#8d92f5" stroke-opacity="1" stroke-width="1" stroke-linecap="square" stroke-linejoin="bevel" transform="matrix(0.995714,0,0,0.995714,520.498,231.309)"
font-family="Cantarell" font-size="14.6667" font-weight="400" font-style="normal" 
>
<path vector-effect="non-scaling-stroke" fill-rule="evenodd" d="M0,0 L0,30 L91,30 L91,10 L81,0 L0,0"/>
<polyline fill="none" vector-effect="non-scaling-stroke" points="81,0 81,10 " />
<polyline fill="none" vector-effect="non-scaling-stroke" points="81,10 91,10 " />
</g>

<g fill="#d6d6e6" fill-opacity="1" stroke="#000000" stroke-opacity="1" stroke-width="1" stroke-linecap="square" stroke-linejoin="bevel" transform="matrix(0.995714,0,0,0.995714,520.498,231.309)"
font-family="Roboto Condensed" font-size="12" font-weight="400" font-style="normal" 
>
</g>

<g fill="#d6d6e6" fill-opacity="1" stroke="#000000" stroke-opacity="1" stroke-width="1" stroke-linecap="square" stroke-linejoin="bevel" transform="matrix(0.995714,0,0,0.995714,520.498,231.309)"
font-family="Roboto Condensed" font-size="12" font-weight="400" font-style="normal" 
>
<text fill="#000000" fill-opacity="1" stroke="none" xml:space="preserve" x="9" y="21" font-family="Roboto Condensed" font-size="12" font-weight="400" font-style="normal" 
 > Composición</text>
</g>

<g fill="none" stroke="#000000" stroke-opacity="1" stroke-width="1" stroke-linecap="square" stroke-linejoin="bevel" transform="matrix(0.995714,0,0,0.995714,520.498,231.309)"
font-family="Cantarell" font-size="14.6667" font-weight="400" font-style="normal" 
>
</g>

<g fill="none" stroke="#000000" stroke-opacity="1" stroke-width="1" stroke-linecap="square" stroke-linejoin="bevel" transform="matrix(0.995714,0,0,0.995714,699.727,295.684)"
font-family="Cantarell" font-size="14.6667" font-weight="400" font-style="normal" 
>
</g>

<g fill="#d6d6e6" fill-opacity="1" stroke="#8d92f5" stroke-opacity="1" stroke-width="1" stroke-linecap="square" stroke-linejoin="bevel" transform="matrix(0.995714,0,0,0.995714,699.727,295.684)"
font-family="Cantarell" font-size="14.6667" font-weight="400" font-style="normal" 
>
<path vector-effect="non-scaling-stroke" fill-rule="evenodd" d="M0,0 L0,30 L297,30 L297,10 L287,0 L0,0"/>
<polyline fill="none" vector-effect="non-scaling-stroke" points="287,0 287,10 " />
<polyline fill="none" vector-effect="non-scaling-stroke" points="287,10 297,10 " />
</g>

<g fill="#d6d6e6" fill-opacity="1" stroke="#000000" stroke-opacity="1" stroke-width="1" stroke-linecap="square" stroke-linejoin="bevel" transform="matrix(0.995714,0,0,0.995714,699.727,295.684)"
font-family="Roboto Condensed" font-size="12" font-weight="400" font-style="normal" 
>
</g>

<g fill="#d6d6e6" fill-opacity="1" stroke="#000000" stroke-opacity="1" stroke-width="1" stroke-linecap="square" stroke-linejoin="bevel" transform="matrix(0.995714,0,0,0.995714,699.727,295.684)"
font-family="Roboto Condensed" font-size="12" font-weight="400" font-style="normal" 
>
<text fill="#000000" fill-opacity="1" stroke="none" xml:space="preserve" x="9" y="21" font-family="Roboto Condensed" font-size="12" font-weight="400" font-style="normal" 
 > Un método de la máquina usa un objeto.</text>
</g>

<g fill="none" stroke="#000000" stroke-opacity="1" stroke-width="1" stroke-linecap="square" stroke-linejoin="bevel" transform="matrix(0.995714,0,0,0.995714,699.727,295.684)"
font-family="Cantarell" font-size="14.6667" font-weight="400" font-style="normal" 
>
</g>

<g fill="none" stroke="#000000" stroke-opacity="1" stroke-width="1" stroke-linecap="square" stroke-linejoin="bevel" transform="matrix(0.995714,0,0,0.995714,520.498,295.381)"
font-family="Cantarell" font-size="14.6667" font-weight="400" font-style="normal" 
>
</g>

<g fill="#d6d6e6" fill-opacity="1" stroke="#8d92f5" stroke-opacity="1" stroke-width="1" stroke-linecap="square" stroke-linejoin="bevel" transform="matrix(0.995714,0,0,0.995714,520.498,295.381)"
font-family="Cantarell" font-size="14.6667" font-weight="400" font-style="normal" 
>
<path vector-effect="non-scaling-stroke" fill-rule="evenodd" d="M0,0 L0,30 L89,30 L89,10 L79,0 L0,0"/>
<polyline fill="none" vector-effect="non-scaling-stroke" points="79,0 79,10 " />
<polyline fill="none" vector-effect="non-scaling-stroke" points="79,10 89,10 " />
</g>

<g fill="#d6d6e6" fill-opacity="1" stroke="#000000" stroke-opacity="1" stroke-width="1" stroke-linecap="square" stroke-linejoin="bevel" transform="matrix(0.995714,0,0,0.995714,520.498,295.381)"
font-family="Roboto Condensed" font-size="12" font-weight="400" font-style="normal" 
>
</g>

<g fill="#d6d6e6" fill-opacity="1" stroke="#000000" stroke-opacity="1" stroke-width="1" stroke-linecap="square" stroke-linejoin="bevel" transform="matrix(0.995714,0,0,0.995714,520.498,295.381)"
font-family="Roboto Condensed" font-size="12" font-weight="400" font-style="normal" 
>
<text fill="#000000" fill-opacity="1" stroke="none" xml:space="preserve" x="9" y="21" font-family="Roboto Condensed" font-size="12" font-weight="400" font-style="normal" 
 > Asociación</text>
</g>

<g fill="none" stroke="#000000" stroke-opacity="1" stroke-width="1" stroke-linecap="square" stroke-linejoin="bevel" transform="matrix(0.995714,0,0,0.995714,520.498,295.381)"
font-family="Cantarell" font-size="14.6667" font-weight="400" font-style="normal" 
>
</g>

<g fill="none" stroke="#000000" stroke-opacity="1" stroke-width="1" stroke-linecap="square" stroke-linejoin="bevel" transform="matrix(0.995714,0,0,0.995714,699.727,361.011)"
font-family="Cantarell" font-size="14.6667" font-weight="400" font-style="normal" 
>
</g>

<g fill="#d6d6e6" fill-opacity="1" stroke="#8d92f5" stroke-opacity="1" stroke-width="1" stroke-linecap="square" stroke-linejoin="bevel" transform="matrix(0.995714,0,0,0.995714,699.727,361.011)"
font-family="Cantarell" font-size="14.6667" font-weight="400" font-style="normal" 
>
<path vector-effect="non-scaling-stroke" fill-rule="evenodd" d="M0,0 L0,42 L301,42 L301,10 L291,0 L0,0"/>
<polyline fill="none" vector-effect="non-scaling-stroke" points="291,0 291,10 " />
<polyline fill="none" vector-effect="non-scaling-stroke" points="291,10 301,10 " />
</g>

<g fill="#d6d6e6" fill-opacity="1" stroke="#000000" stroke-opacity="1" stroke-width="1" stroke-linecap="square" stroke-linejoin="bevel" transform="matrix(0.995714,0,0,0.995714,699.727,361.011)"
font-family="Roboto Condensed" font-size="12" font-weight="400" font-style="normal" 
>
</g>

<g fill="#d6d6e6" fill-opacity="1" stroke="#000000" stroke-opacity="1" stroke-width="1" stroke-linecap="square" stroke-linejoin="bevel" transform="matrix(0.995714,0,0,0.995714,699.727,361.011)"
font-family="Roboto Condensed" font-size="12" font-weight="400" font-style="normal" 
>
<text fill="#000000" fill-opacity="1" stroke="none" xml:space="preserve" x="9" y="21" font-family="Roboto Condensed" font-size="12" font-weight="400" font-style="normal" 
 > El artesano recibe un objeto visitante con el que trabaja.</text>
</g>

<g fill="#d6d6e6" fill-opacity="1" stroke="#000000" stroke-opacity="1" stroke-width="1" stroke-linecap="square" stroke-linejoin="bevel" transform="matrix(0.995714,0,0,0.995714,699.727,361.011)"
font-family="Roboto Condensed" font-size="12" font-weight="400" font-style="normal" 
>
</g>

<g fill="#d6d6e6" fill-opacity="1" stroke="#000000" stroke-opacity="1" stroke-width="1" stroke-linecap="square" stroke-linejoin="bevel" transform="matrix(0.995714,0,0,0.995714,699.727,361.011)"
font-family="Roboto Condensed" font-size="12" font-weight="400" font-style="normal" 
>
<text fill="#000000" fill-opacity="1" stroke="none" xml:space="preserve" x="9" y="37" font-family="Roboto Condensed" font-size="12" font-weight="400" font-style="normal" 
 > Típicamente se recibe como parámetro en una llamada.</text>
</g>

<g fill="none" stroke="#000000" stroke-opacity="1" stroke-width="1" stroke-linecap="square" stroke-linejoin="bevel" transform="matrix(0.995714,0,0,0.995714,699.727,361.011)"
font-family="Cantarell" font-size="14.6667" font-weight="400" font-style="normal" 
>
</g>

<g fill="none" stroke="#000000" stroke-opacity="1" stroke-width="1" stroke-linecap="square" stroke-linejoin="bevel" transform="matrix(0.995714,0,0,0.995714,520.498,360.318)"
font-family="Cantarell" font-size="14.6667" font-weight="400" font-style="normal" 
>
</g>

<g fill="#d6d6e6" fill-opacity="1" stroke="#8d92f5" stroke-opacity="1" stroke-width="1" stroke-linecap="square" stroke-linejoin="bevel" transform="matrix(0.995714,0,0,0.995714,520.498,360.318)"
font-family="Cantarell" font-size="14.6667" font-weight="400" font-style="normal" 
>
<path vector-effect="non-scaling-stroke" fill-rule="evenodd" d="M0,0 L0,30 L93,30 L93,10 L83,0 L0,0"/>
<polyline fill="none" vector-effect="non-scaling-stroke" points="83,0 83,10 " />
<polyline fill="none" vector-effect="non-scaling-stroke" points="83,10 93,10 " />
</g>

<g fill="#d6d6e6" fill-opacity="1" stroke="#000000" stroke-opacity="1" stroke-width="1" stroke-linecap="square" stroke-linejoin="bevel" transform="matrix(0.995714,0,0,0.995714,520.498,360.318)"
font-family="Roboto Condensed" font-size="12" font-weight="400" font-style="normal" 
>
</g>

<g fill="#d6d6e6" fill-opacity="1" stroke="#000000" stroke-opacity="1" stroke-width="1" stroke-linecap="square" stroke-linejoin="bevel" transform="matrix(0.995714,0,0,0.995714,520.498,360.318)"
font-family="Roboto Condensed" font-size="12" font-weight="400" font-style="normal" 
>
<text fill="#000000" fill-opacity="1" stroke="none" xml:space="preserve" x="9" y="21" font-family="Roboto Condensed" font-size="12" font-weight="400" font-style="normal" 
 > Dependencia</text>
</g>

<g fill="none" stroke="#000000" stroke-opacity="1" stroke-width="1" stroke-linecap="square" stroke-linejoin="bevel" transform="matrix(0.995714,0,0,0.995714,520.498,360.318)"
font-family="Cantarell" font-size="14.6667" font-weight="400" font-style="normal" 
>
</g>

<g fill="none" stroke="#000000" stroke-opacity="1" stroke-width="1" stroke-linecap="square" stroke-linejoin="bevel" transform="matrix(0.995714,0,0,0.995714,523.962,0.995714)"
font-family="Cantarell" font-size="14.6667" font-weight="400" font-style="normal" 
>
</g>

<g fill="#d6d6e6" fill-opacity="1" stroke="#8d92f5" stroke-opacity="1" stroke-width="1" stroke-linecap="square" stroke-linejoin="bevel" transform="matrix(0.995714,0,0,0.995714,523.962,0.995714)"
font-family="Cantarell" font-size="14.6667" font-weight="400" font-style="normal" 
>
<path vector-effect="non-scaling-stroke" fill-rule="evenodd" d="M0,0 L0,30 L72,30 L72,10 L62,0 L0,0"/>
<polyline fill="none" vector-effect="non-scaling-stroke" points="62,0 62,10 " />
<polyline fill="none" vector-effect="non-scaling-stroke" points="62,10 72,10 " />
</g>

<g fill="#d6d6e6" fill-opacity="1" stroke="#000000" stroke-opacity="1" stroke-width="1" stroke-linecap="square" stroke-linejoin="bevel" transform="matrix(0.995714,0,0,0.995714,523.962,0.995714)"
font-family="Roboto Condensed" font-size="12" font-weight="400" font-style="normal" 
>
</g>

<g fill="#d6d6e6" fill-opacity="1" stroke="#000000" stroke-opacity="1" stroke-width="1" stroke-linecap="square" stroke-linejoin="bevel" transform="matrix(0.995714,0,0,0.995714,523.962,0.995714)"
font-family="Roboto Condensed" font-size="12" font-weight="400" font-style="normal" 
>
<text fill="#000000" fill-opacity="1" stroke="none" xml:space="preserve" x="9" y="21" font-family="Roboto Condensed" font-size="12" font-weight="400" font-style="normal" 
 > Relación</text>
</g>

<g fill="none" stroke="#000000" stroke-opacity="1" stroke-width="1" stroke-linecap="square" stroke-linejoin="bevel" transform="matrix(0.995714,0,0,0.995714,523.962,0.995714)"
font-family="Cantarell" font-size="14.6667" font-weight="400" font-style="normal" 
>
</g>

<g fill="none" stroke="#000000" stroke-opacity="1" stroke-width="1" stroke-linecap="square" stroke-linejoin="bevel" transform="matrix(0.995714,0,0,0.995714,308.368,0.995714)"
font-family="Cantarell" font-size="14.6667" font-weight="400" font-style="normal" 
>
</g>

<g fill="#d6d6e6" fill-opacity="1" stroke="#8d92f5" stroke-opacity="1" stroke-width="1" stroke-linecap="square" stroke-linejoin="bevel" transform="matrix(0.995714,0,0,0.995714,308.368,0.995714)"
font-family="Cantarell" font-size="14.6667" font-weight="400" font-style="normal" 
>
<path vector-effect="non-scaling-stroke" fill-rule="evenodd" d="M0,0 L0,30 L67,30 L67,10 L57,0 L0,0"/>
<polyline fill="none" vector-effect="non-scaling-stroke" points="57,0 57,10 " />
<polyline fill="none" vector-effect="non-scaling-stroke" points="57,10 67,10 " />
</g>

<g fill="#d6d6e6" fill-opacity="1" stroke="#000000" stroke-opacity="1" stroke-width="1" stroke-linecap="square" stroke-linejoin="bevel" transform="matrix(0.995714,0,0,0.995714,308.368,0.995714)"
font-family="Roboto Condensed" font-size="12" font-weight="400" font-style="normal" 
>
</g>

<g fill="#d6d6e6" fill-opacity="1" stroke="#000000" stroke-opacity="1" stroke-width="1" stroke-linecap="square" stroke-linejoin="bevel" transform="matrix(0.995714,0,0,0.995714,308.368,0.995714)"
font-family="Roboto Condensed" font-size="12" font-weight="400" font-style="normal" 
>
<text fill="#000000" fill-opacity="1" stroke="none" xml:space="preserve" x="9" y="21" font-family="Roboto Condensed" font-size="12" font-weight="400" font-style="normal" 
 > Clases</text>
</g>

<g fill="none" stroke="#000000" stroke-opacity="1" stroke-width="1" stroke-linecap="square" stroke-linejoin="bevel" transform="matrix(0.995714,0,0,0.995714,308.368,0.995714)"
font-family="Cantarell" font-size="14.6667" font-weight="400" font-style="normal" 
>
</g>

<g fill="none" stroke="#000000" stroke-opacity="1" stroke-width="1" stroke-linecap="square" stroke-linejoin="bevel" transform="matrix(0.995714,0,0,0.995714,0.995714,204.468)"
font-family="Cantarell" font-size="14.6667" font-weight="400" font-style="normal" 
>
</g>

<g fill="#d6d6e6" fill-opacity="1" stroke="#8d92f5" stroke-opacity="1" stroke-width="1" stroke-linecap="square" stroke-linejoin="bevel" transform="matrix(0.995714,0,0,0.995714,0.995714,204.468)"
font-family="Cantarell" font-size="14.6667" font-weight="400" font-style="normal" 
>
<path vector-effect="non-scaling-stroke" fill-rule="evenodd" d="M0,0 L0,61 L154,61 L154,10 L144,0 L0,0"/>
<polyline fill="none" vector-effect="non-scaling-stroke" points="144,0 144,10 " />
<polyline fill="none" vector-effect="non-scaling-stroke" points="144,10 154,10 " />
</g>

<g fill="#d6d6e6" fill-opacity="1" stroke="#000000" stroke-opacity="1" stroke-width="1" stroke-linecap="square" stroke-linejoin="bevel" transform="matrix(0.995714,0,0,0.995714,0.995714,204.468)"
font-family="Roboto Condensed" font-size="12" font-weight="400" font-style="normal" 
>
</g>

<g fill="#d6d6e6" fill-opacity="1" stroke="#000000" stroke-opacity="1" stroke-width="1" stroke-linecap="square" stroke-linejoin="bevel" transform="matrix(0.995714,0,0,0.995714,0.995714,204.468)"
font-family="Roboto Condensed" font-size="12" font-weight="400" font-style="normal" 
>
<text fill="#000000" fill-opacity="1" stroke="none" xml:space="preserve" x="9" y="21" font-family="Roboto Condensed" font-size="12" font-weight="400" font-style="normal" 
 > Los nombres de las clases</text>
</g>

<g fill="#d6d6e6" fill-opacity="1" stroke="#000000" stroke-opacity="1" stroke-width="1" stroke-linecap="square" stroke-linejoin="bevel" transform="matrix(0.995714,0,0,0.995714,0.995714,204.468)"
font-family="Roboto Condensed" font-size="12" font-weight="400" font-style="normal" 
>
</g>

<g fill="#d6d6e6" fill-opacity="1" stroke="#000000" stroke-opacity="1" stroke-width="1" stroke-linecap="square" stroke-linejoin="bevel" transform="matrix(0.995714,0,0,0.995714,0.995714,204.468)"
font-family="Roboto Condensed" font-size="12" font-weight="400" font-style="normal" 
>
<text fill="#000000" fill-opacity="1" stroke="none" xml:space="preserve" x="9" y="37" font-family="Roboto Condensed" font-size="12" font-weight="400" font-style="normal" 
 >son totalmente alegóricos.</text>
</g>

<g fill="none" stroke="#000000" stroke-opacity="1" stroke-width="1" stroke-linecap="square" stroke-linejoin="bevel" transform="matrix(0.995714,0,0,0.995714,0.995714,204.468)"
font-family="Cantarell" font-size="14.6667" font-weight="400" font-style="normal" 
>
</g>

<g fill="none" stroke="#000000" stroke-opacity="1" stroke-width="1" stroke-linecap="square" stroke-linejoin="bevel" transform="matrix(0.995714,0,0,0.995714,798.432,0.995714)"
font-family="Cantarell" font-size="14.6667" font-weight="400" font-style="normal" 
>
</g>

<g fill="#d6d6e6" fill-opacity="1" stroke="#8d92f5" stroke-opacity="1" stroke-width="1" stroke-linecap="square" stroke-linejoin="bevel" transform="matrix(0.995714,0,0,0.995714,798.432,0.995714)"
font-family="Cantarell" font-size="14.6667" font-weight="400" font-style="normal" 
>
<path vector-effect="non-scaling-stroke" fill-rule="evenodd" d="M0,0 L0,31 L89,31 L89,10 L79,0 L0,0"/>
<polyline fill="none" vector-effect="non-scaling-stroke" points="79,0 79,10 " />
<polyline fill="none" vector-effect="non-scaling-stroke" points="79,10 89,10 " />
</g>

<g fill="#d6d6e6" fill-opacity="1" stroke="#000000" stroke-opacity="1" stroke-width="1" stroke-linecap="square" stroke-linejoin="bevel" transform="matrix(0.995714,0,0,0.995714,798.432,0.995714)"
font-family="Roboto Condensed" font-size="12" font-weight="400" font-style="normal" 
>
</g>

<g fill="#d6d6e6" fill-opacity="1" stroke="#000000" stroke-opacity="1" stroke-width="1" stroke-linecap="square" stroke-linejoin="bevel" transform="matrix(0.995714,0,0,0.995714,798.432,0.995714)"
font-family="Roboto Condensed" font-size="12" font-weight="400" font-style="normal" 
>
</g>

<g fill="#d6d6e6" fill-opacity="1" stroke="#000000" stroke-opacity="1" stroke-width="1" stroke-linecap="square" stroke-linejoin="bevel" transform="matrix(0.995714,0,0,0.995714,798.432,0.995714)"
font-family="Roboto Condensed" font-size="12" font-weight="400" font-style="normal" 
>
<text fill="#000000" fill-opacity="1" stroke="none" xml:space="preserve" x="9" y="21" font-family="Roboto Condensed" font-size="12" font-weight="400" font-style="normal" 
 > Explicación</text>
</g>

<g fill="#d6d6e6" fill-opacity="1" stroke="#000000" stroke-opacity="1" stroke-width="1" stroke-linecap="square" stroke-linejoin="bevel" transform="matrix(0.995714,0,0,0.995714,798.432,0.995714)"
font-family="Roboto Condensed" font-size="12" font-weight="400" font-style="normal" 
>
</g>

<g fill="#d6d6e6" fill-opacity="1" stroke="#000000" stroke-opacity="1" stroke-width="1" stroke-linecap="square" stroke-linejoin="bevel" transform="matrix(1,0,0,1,0,0)"
font-family="Roboto Condensed" font-size="12" font-weight="400" font-style="normal" 
>
</g>

<g fill="#d6d6e6" fill-opacity="1" stroke="#000000" stroke-opacity="1" stroke-width="1" stroke-linecap="square" stroke-linejoin="bevel" transform="matrix(0.995714,0,0,0.995714,798.432,0.995714)"
font-family="Roboto Condensed" font-size="12" font-weight="400" font-style="normal" 
>
</g>

<g fill="none" stroke="#000000" stroke-opacity="1" stroke-width="1" stroke-linecap="square" stroke-linejoin="bevel" transform="matrix(0.995714,0,0,0.995714,798.432,0.995714)"
font-family="Cantarell" font-size="14.6667" font-weight="400" font-style="normal" 
>
</g>

<g fill="none" stroke="#000000" stroke-opacity="1" stroke-width="1" stroke-linecap="square" stroke-linejoin="bevel" transform="matrix(1,0,0,1,0,0)"
font-family="Cantarell" font-size="14.6667" font-weight="400" font-style="normal" 
>
</g>
</g>
</svg>
